14:40:10 INFO  [com.tad.mvx.b2c.boo.ServletConfig] (Quarkus Main Thread) Servlet Context initialized
14:40:10 INFO  [waf.ser.NegotiateSecurityFilter] (Quarkus Main Thread) [waffle.servlet.NegotiateSecurityFilter] started
14:40:10 INFO  [io.agr.pool] (Quarkus Main Thread) Datasource 'spdaorg': Initial size smaller than min. Connections will be created when necessary
14:40:10 WARN  [io.qua.agr.run.AgroalConnectionConfigurer] (Quarkus Main Thread) Agroal does not support detecting if a connection is still usable after an exception for database kind: other
14:40:44 INFO  [com.tad.mvx.b2c.boo.ApplConfig] (pool-12-thread-1) process GetToken started 
14:40:44 INFO  [com.tad.mvx.b2c.boo.ApplConfig] (pool-12-thread-1) ccca20b3d3049e48d3af072741618f4ac0f81e77
14:40:44 INFO  [com.tad.mvx.b2c.boo.ApplConfig] (pool-12-thread-1) process GetToken finished 
14:40:44 INFO  [io.quarkus] (Quarkus Main Thread) b2cshopecd 0.0.1 on JVM (powered by Quarkus 2.15.0.Final) started in 69.389s. Listening on: http://0.0.0.0:19097
14:40:44 INFO  [io.quarkus] (Quarkus Main Thread) Profile dev activated. Live Coding activated.
14:40:44 INFO  [io.quarkus] (Quarkus Main Thread) Installed features: [agroal, cdi, hibernate-orm, jdbc-mssql, mailer, narayana-jta, netty-Loom-adaptor, qute, rest-client, resteasy, resteasy-jsonb, servlet, smallrye-context-propagation, smallrye-fault-tolerance, smallrye-health, smallrye-metrics, smallrye-openapi, swagger-ui, vertx]
14:41:45 INFO  [waf.ser.NegotiateSecurityFilter] (executor-thread-0) successfully logged in user: TDM\R6492682
14:41:50 INFO  [com.tad.mvx.b2c.ser.v1.ProductStockServ] (executor-thread-0) List<ProductSpOffers> R6492682 executor-thread-0
14:41:55 INFO  [com.tad.mvx.b2c.ser.v1.ProductStockServ] (executor-thread-0) List<Product> R6492682 executor-thread-0
14:42:00 INFO  [com.tad.mvx.b2c.ser.v1.ProductStockServ] (executor-thread-0) getProductsPgs executor-thread-0
