15:08:18 INFO  [com.tad.mvx.b2c.boo.ServletConfig] (Quarkus Main Thread) Servlet Context initialized
15:08:18 INFO  [waf.ser.NegotiateSecurityFilter] (Quarkus Main Thread) [waffle.servlet.NegotiateSecurityFilter] started
15:08:19 INFO  [io.agr.pool] (Quarkus Main Thread) Datasource 'spdaorg': Initial size smaller than min. Connections will be created when necessary
15:08:19 WARN  [io.qua.agr.run.AgroalConnectionConfigurer] (Quarkus Main Thread) Agroal does not support detecting if a connection is still usable after an exception for database kind: other
15:08:51 INFO  [com.tad.mvx.b2c.boo.ApplConfig] (pool-12-thread-1) process GetToken started 
15:08:51 INFO  [com.tad.mvx.b2c.boo.ApplConfig] (pool-12-thread-1) 1b09f0cb687e549dd95c3ebe33a110900b4f7b06
15:08:51 INFO  [com.tad.mvx.b2c.boo.ApplConfig] (pool-12-thread-1) process GetToken finished 
15:08:52 INFO  [io.quarkus] (Quarkus Main Thread) b2cshopecd 0.0.1 on JVM (powered by Quarkus 2.15.0.Final) started in 39.461s. Listening on: http://0.0.0.0:19097
15:08:52 INFO  [io.quarkus] (Quarkus Main Thread) Profile dev activated. Live Coding activated.
15:08:52 INFO  [io.quarkus] (Quarkus Main Thread) Installed features: [agroal, cdi, hibernate-orm, jdbc-mssql, mailer, narayana-jta, netty-Loom-adaptor, qute, rest-client, resteasy, resteasy-jsonb, servlet, smallrye-context-propagation, smallrye-fault-tolerance, smallrye-health, smallrye-metrics, smallrye-openapi, swagger-ui, vertx]
15:20:23 INFO  [waf.ser.NegotiateSecurityFilter] (executor-thread-0) successfully logged in user: TDM\R6492682
15:20:24 INFO  [waf.ser.NegotiateSecurityFilter] (executor-thread-1) successfully logged in user: TDM\R6492682
15:20:36 INFO  [com.tad.mvx.b2c.ser.v1.ProductStockServ] (executor-thread-1) List<ProductSpOffers> R6492682 executor-thread-1
15:20:48 INFO  [com.tad.mvx.b2c.ser.v1.ProductStockServ] (executor-thread-0) List<ProductSpOffers> R6492682 executor-thread-0
15:21:03 INFO  [com.tad.mvx.b2c.ser.v1.ProductStockServ] (executor-thread-0) List<Product> R6492682 executor-thread-0
15:21:03 INFO  [com.tad.mvx.b2c.ser.v1.ProductStockServ] (executor-thread-0) getProductsPgs executor-thread-0
15:21:07 INFO  [com.tad.mvx.b2c.ser.v1.ProductStockServ] (executor-thread-1) List<Product> R6492682 executor-thread-1
15:21:07 INFO  [com.tad.mvx.b2c.ser.v1.ProductStockServ] (executor-thread-1) getProductsPgs executor-thread-1
15:26:16 ERROR [io.und.req.io] (executor-thread-0) Exception handling request f0e09d9b-b054-4908-9350-a0d86c0117ad-1 to /b2cshopecd/api/int/v1/specialoffers: org.jboss.resteasy.spi.UnhandledException: java.io.IOException: java.lang.IllegalStateException: UT000127: Response has already been sent
	at org.jboss.resteasy.core.ExceptionHandler.handleException(ExceptionHandler.java:368)
	at org.jboss.resteasy.core.SynchronousDispatcher.writeException(SynchronousDispatcher.java:218)
	at org.jboss.resteasy.core.SynchronousDispatcher.writeResponse(SynchronousDispatcher.java:614)
	at org.jboss.resteasy.core.SynchronousDispatcher.invoke(SynchronousDispatcher.java:524)
	at org.jboss.resteasy.core.SynchronousDispatcher.lambda$invoke$4(SynchronousDispatcher.java:261)
	at org.jboss.resteasy.core.SynchronousDispatcher.lambda$preprocess$0(SynchronousDispatcher.java:161)
	at org.jboss.resteasy.core.interception.jaxrs.PreMatchContainerRequestContext.filter(PreMatchContainerRequestContext.java:364)
	at org.jboss.resteasy.core.SynchronousDispatcher.preprocess(SynchronousDispatcher.java:164)
	at org.jboss.resteasy.core.SynchronousDispatcher.invoke(SynchronousDispatcher.java:247)
	at org.jboss.resteasy.plugins.server.servlet.ServletContainerDispatcher.service(ServletContainerDispatcher.java:249)
	at org.jboss.resteasy.plugins.server.servlet.HttpServletDispatcher.service(HttpServletDispatcher.java:60)
	at io.quarkus.resteasy.runtime.ResteasyServlet.service(ResteasyServlet.java:19)
	at org.jboss.resteasy.plugins.server.servlet.HttpServletDispatcher.service(HttpServletDispatcher.java:55)
	at javax.servlet.http.HttpServlet.service(HttpServlet.java:590)
	at io.undertow.servlet.handlers.ServletHandler.handleRequest(ServletHandler.java:74)
	at io.undertow.servlet.handlers.FilterHandler$FilterChainImpl.doFilter(FilterHandler.java:129)
	at waffle.servlet.NegotiateSecurityFilter.doFilter(NegotiateSecurityFilter.java:235)
	at io.undertow.servlet.core.ManagedFilter.doFilter(ManagedFilter.java:61)
	at io.undertow.servlet.handlers.FilterHandler$FilterChainImpl.doFilter(FilterHandler.java:131)
	at io.undertow.servlet.handlers.FilterHandler.handleRequest(FilterHandler.java:84)
	at io.undertow.servlet.handlers.security.ServletSecurityRoleHandler.handleRequest(ServletSecurityRoleHandler.java:63)
	at io.undertow.servlet.handlers.ServletChain$1.handleRequest(ServletChain.java:68)
	at io.undertow.servlet.handlers.ServletDispatchingHandler.handleRequest(ServletDispatchingHandler.java:36)
	at io.undertow.servlet.handlers.RedirectDirHandler.handleRequest(RedirectDirHandler.java:67)
	at io.undertow.servlet.handlers.security.SSLInformationAssociationHandler.handleRequest(SSLInformationAssociationHandler.java:133)
	at io.undertow.servlet.handlers.security.ServletAuthenticationCallHandler.handleRequest(ServletAuthenticationCallHandler.java:57)
	at io.undertow.server.handlers.PredicateHandler.handleRequest(PredicateHandler.java:43)
	at io.undertow.security.handlers.AbstractConfidentialityHandler.handleRequest(AbstractConfidentialityHandler.java:46)
	at io.undertow.servlet.handlers.security.ServletConfidentialityConstraintHandler.handleRequest(ServletConfidentialityConstraintHandler.java:65)
	at io.undertow.security.handlers.AuthenticationMechanismsHandler.handleRequest(AuthenticationMechanismsHandler.java:60)
	at io.undertow.servlet.handlers.security.CachedAuthenticatedSessionHandler.handleRequest(CachedAuthenticatedSessionHandler.java:77)
	at io.undertow.security.handlers.NotificationReceiverHandler.handleRequest(NotificationReceiverHandler.java:50)
	at io.undertow.security.handlers.AbstractSecurityContextAssociationHandler.handleRequest(AbstractSecurityContextAssociationHandler.java:43)
	at io.undertow.server.handlers.PredicateHandler.handleRequest(PredicateHandler.java:43)
	at io.undertow.server.handlers.PredicateHandler.handleRequest(PredicateHandler.java:43)
	at io.undertow.servlet.handlers.ServletInitialHandler.handleFirstRequest(ServletInitialHandler.java:247)
	at io.undertow.servlet.handlers.ServletInitialHandler.access$100(ServletInitialHandler.java:56)
	at io.undertow.servlet.handlers.ServletInitialHandler$2.call(ServletInitialHandler.java:111)
	at io.undertow.servlet.handlers.ServletInitialHandler$2.call(ServletInitialHandler.java:108)
	at io.undertow.servlet.core.ServletRequestContextThreadSetupAction$1.call(ServletRequestContextThreadSetupAction.java:48)
	at io.undertow.servlet.core.ContextClassLoaderSetupAction$1.call(ContextClassLoaderSetupAction.java:43)
	at io.quarkus.undertow.runtime.UndertowDeploymentRecorder$9$1.call(UndertowDeploymentRecorder.java:595)
	at io.undertow.servlet.handlers.ServletInitialHandler.dispatchRequest(ServletInitialHandler.java:227)
	at io.undertow.servlet.handlers.ServletInitialHandler.handleRequest(ServletInitialHandler.java:152)
	at io.undertow.server.handlers.PathHandler.handleRequest(PathHandler.java:91)
	at io.quarkus.undertow.runtime.UndertowDeploymentRecorder$1.handleRequest(UndertowDeploymentRecorder.java:120)
	at io.undertow.server.Connectors.executeRootHandler(Connectors.java:284)
	at io.undertow.server.DefaultExchangeHandler.handle(DefaultExchangeHandler.java:18)
	at io.quarkus.undertow.runtime.UndertowDeploymentRecorder$5$1.run(UndertowDeploymentRecorder.java:417)
	at java.base/java.util.concurrent.Executors$RunnableAdapter.call(Executors.java:577)
	at java.base/java.util.concurrent.FutureTask.run(FutureTask.java:317)
	at io.quarkus.vertx.core.runtime.VertxCoreRecorder$14.runWith(VertxCoreRecorder.java:576)
	at org.jboss.threads.EnhancedQueueExecutor$Task.run(EnhancedQueueExecutor.java:2449)
	at org.jboss.threads.EnhancedQueueExecutor$ThreadBody.run(EnhancedQueueExecutor.java:1478)
	at org.jboss.threads.DelegatingRunnable.run(DelegatingRunnable.java:29)
	at org.jboss.threads.ThreadLocalResettingRunnable.run(ThreadLocalResettingRunnable.java:29)
	at io.netty.util.concurrent.FastThreadLocalRunnable.run(FastThreadLocalRunnable.java:30)
	at java.base/java.lang.Thread.run(Thread.java:1589)
Caused by: java.io.IOException: java.lang.IllegalStateException: UT000127: Response has already been sent
	at io.undertow.servlet.spec.ServletOutputStreamImpl.write(ServletOutputStreamImpl.java:163)
	at org.jboss.resteasy.plugins.server.servlet.HttpServletResponseWrapper$DeferredOutputStream.write(HttpServletResponseWrapper.java:270)
	at org.jboss.resteasy.plugins.server.servlet.HttpServletResponseWrapper$WriteOperation.doWork(HttpServletResponseWrapper.java:111)
	at org.jboss.resteasy.plugins.server.servlet.HttpServletResponseWrapper$AsyncOperation.work(HttpServletResponseWrapper.java:55)
	at org.jboss.resteasy.plugins.server.servlet.HttpServletResponseWrapper$DeferredOutputStream.queue(HttpServletResponseWrapper.java:333)
	at org.jboss.resteasy.plugins.server.servlet.HttpServletResponseWrapper$DeferredOutputStream.asyncWrite(HttpServletResponseWrapper.java:297)
	at org.jboss.resteasy.util.CommitHeaderAsyncOutputStream.asyncWrite(CommitHeaderAsyncOutputStream.java:94)
	at org.jboss.resteasy.spi.AsyncOutputStream.asyncWrite(AsyncOutputStream.java:23)
	at org.jboss.resteasy.plugins.providers.jsonb.JsonBindingProvider.asyncWriteTo(JsonBindingProvider.java:154)
	at org.jboss.resteasy.core.interception.jaxrs.ServerWriterInterceptorContext.writeTo(ServerWriterInterceptorContext.java:87)
	at org.jboss.resteasy.core.interception.jaxrs.AbstractWriterInterceptorContext.asyncProceed(AbstractWriterInterceptorContext.java:203)
	at org.jboss.resteasy.core.interception.jaxrs.AbstractWriterInterceptorContext.getStarted(AbstractWriterInterceptorContext.java:166)
	at org.jboss.resteasy.core.interception.jaxrs.ServerWriterInterceptorContext.lambda$getStarted$0(ServerWriterInterceptorContext.java:73)
	at org.jboss.resteasy.core.interception.jaxrs.ServerWriterInterceptorContext.aroundWriteTo(ServerWriterInterceptorContext.java:93)
	at org.jboss.resteasy.core.interception.jaxrs.ServerWriterInterceptorContext.getStarted(ServerWriterInterceptorContext.java:73)
	at org.jboss.resteasy.core.ServerResponseWriter.lambda$writeNomapResponse$3(ServerResponseWriter.java:163)
	at org.jboss.resteasy.core.interception.jaxrs.ContainerResponseContextImpl.filter(ContainerResponseContextImpl.java:410)
	at org.jboss.resteasy.core.ServerResponseWriter.executeFilters(ServerResponseWriter.java:252)
	at org.jboss.resteasy.core.ServerResponseWriter.writeNomapResponse(ServerResponseWriter.java:101)
	at org.jboss.resteasy.core.ServerResponseWriter.writeNomapResponse(ServerResponseWriter.java:74)
	at org.jboss.resteasy.core.SynchronousDispatcher.writeResponse(SynchronousDispatcher.java:594)
	... 55 more
Caused by: java.lang.IllegalStateException: UT000127: Response has already been sent
	at io.undertow.server.HttpServerExchange.writeBlocking(HttpServerExchange.java:1004)
	at io.undertow.servlet.spec.ServletOutputStreamImpl.write(ServletOutputStreamImpl.java:155)
	... 75 more

15:26:17 ERROR [io.und.request] (executor-thread-0) UT005071: Undertow request failed HttpServerExchange{ GET /b2cshopecd/api/int/v1/specialoffers delegate io.undertow.vertx.VertxHttpExchange@1d17e36b}: java.lang.IllegalStateException: UT010019: Response already commited
	at io.undertow.servlet.spec.ServletOutputStreamImpl.resetBuffer(ServletOutputStreamImpl.java:263)
	at io.undertow.servlet.spec.HttpServletResponseImpl.reset(HttpServletResponseImpl.java:497)
	at io.undertow.servlet.handlers.ServletInitialHandler.handleFirstRequest(ServletInitialHandler.java:271)
	at io.undertow.servlet.handlers.ServletInitialHandler.access$100(ServletInitialHandler.java:56)
	at io.undertow.servlet.handlers.ServletInitialHandler$2.call(ServletInitialHandler.java:111)
	at io.undertow.servlet.handlers.ServletInitialHandler$2.call(ServletInitialHandler.java:108)
	at io.undertow.servlet.core.ServletRequestContextThreadSetupAction$1.call(ServletRequestContextThreadSetupAction.java:48)
	at io.undertow.servlet.core.ContextClassLoaderSetupAction$1.call(ContextClassLoaderSetupAction.java:43)
	at io.quarkus.undertow.runtime.UndertowDeploymentRecorder$9$1.call(UndertowDeploymentRecorder.java:595)
	at io.undertow.servlet.handlers.ServletInitialHandler.dispatchRequest(ServletInitialHandler.java:227)
	at io.undertow.servlet.handlers.ServletInitialHandler.handleRequest(ServletInitialHandler.java:152)
	at io.undertow.server.handlers.PathHandler.handleRequest(PathHandler.java:91)
	at io.quarkus.undertow.runtime.UndertowDeploymentRecorder$1.handleRequest(UndertowDeploymentRecorder.java:120)
	at io.undertow.server.Connectors.executeRootHandler(Connectors.java:284)
	at io.undertow.server.DefaultExchangeHandler.handle(DefaultExchangeHandler.java:18)
	at io.quarkus.undertow.runtime.UndertowDeploymentRecorder$5$1.run(UndertowDeploymentRecorder.java:417)
	at java.base/java.util.concurrent.Executors$RunnableAdapter.call(Executors.java:577)
	at java.base/java.util.concurrent.FutureTask.run(FutureTask.java:317)
	at io.quarkus.vertx.core.runtime.VertxCoreRecorder$14.runWith(VertxCoreRecorder.java:576)
	at org.jboss.threads.EnhancedQueueExecutor$Task.run(EnhancedQueueExecutor.java:2449)
	at org.jboss.threads.EnhancedQueueExecutor$ThreadBody.run(EnhancedQueueExecutor.java:1478)
	at org.jboss.threads.DelegatingRunnable.run(DelegatingRunnable.java:29)
	at org.jboss.threads.ThreadLocalResettingRunnable.run(ThreadLocalResettingRunnable.java:29)
	at io.netty.util.concurrent.FastThreadLocalRunnable.run(FastThreadLocalRunnable.java:30)
	at java.base/java.lang.Thread.run(Thread.java:1589)

15:27:45 INFO  [com.tad.mvx.b2c.ser.v1.ProductStockServ] (executor-thread-1) List<ProductSpOffers> R6492682 executor-thread-1
15:27:58 INFO  [com.tad.mvx.b2c.ser.v1.ProductStockServ] (executor-thread-1) List<Product> R6492682 executor-thread-1
15:27:58 INFO  [com.tad.mvx.b2c.ser.v1.ProductStockServ] (executor-thread-1) getProductsPgs executor-thread-1
