15:44:02 INFO  [com.tad.mvx.b2c.boo.ServletConfig] (Quarkus Main Thread) Servlet Context initialized
15:44:02 INFO  [waf.ser.NegotiateSecurityFilter] (Quarkus Main Thread) [waffle.servlet.NegotiateSecurityFilter] started
15:44:02 INFO  [io.agr.pool] (Quarkus Main Thread) Datasource 'spdaorg': Initial size smaller than min. Connections will be created when necessary
15:44:02 WARN  [io.qua.agr.run.AgroalConnectionConfigurer] (Quarkus Main Thread) Agroal does not support detecting if a connection is still usable after an exception for database kind: other
15:44:34 INFO  [com.tad.mvx.b2c.boo.ApplConfig] (pool-12-thread-1) process GetToken started 
15:44:34 INFO  [com.tad.mvx.b2c.boo.ApplConfig] (pool-12-thread-1) e3f5adf4c01598807fadf523e7deaa47b8b09bbd
15:44:34 INFO  [com.tad.mvx.b2c.boo.ApplConfig] (pool-12-thread-1) process GetToken finished 
15:44:35 INFO  [io.quarkus] (Quarkus Main Thread) b2cshopecd 0.0.1 on JVM (powered by Quarkus 2.15.0.Final) started in 39.062s. Listening on: http://0.0.0.0:19097
15:44:35 INFO  [io.quarkus] (Quarkus Main Thread) Profile dev activated. Live Coding activated.
15:44:35 INFO  [io.quarkus] (Quarkus Main Thread) Installed features: [agroal, cdi, hibernate-orm, jdbc-mssql, mailer, narayana-jta, netty-Loom-adaptor, qute, rest-client, resteasy, resteasy-jsonb, servlet, smallrye-context-propagation, smallrye-fault-tolerance, smallrye-health, smallrye-metrics, smallrye-openapi, swagger-ui, vertx]
15:45:13 INFO  [waf.ser.NegotiateSecurityFilter] (executor-thread-0) successfully logged in user: TDM\R6492682
15:45:13 INFO  [com.tad.mvx.b2c.ser.v1.ProductStockServ] (executor-thread-0) List<ProductSpOffers> R6492682 executor-thread-0
15:45:18 INFO  [com.tad.mvx.b2c.ser.v1.ProductStockServ] (executor-thread-0) List<Product> R6492682 executor-thread-0
15:45:18 INFO  [com.tad.mvx.b2c.ser.v1.ProductStockServ] (executor-thread-0) getProductsPgs executor-thread-0
