19:59:28 INFO  [com.tad.mvx.b2c.boo.ServletConfig] (Quarkus Main Thread) Servlet Context initialized
19:59:28 INFO  [waf.ser.NegotiateSecurityFilter] (Quarkus Main Thread) [waffle.servlet.NegotiateSecurityFilter] started
19:59:28 INFO  [io.agr.pool] (Quarkus Main Thread) Datasource 'spdaorg': Initial size smaller than min. Connections will be created when necessary
19:59:28 WARN  [io.qua.agr.run.AgroalConnectionConfigurer] (Quarkus Main Thread) Agroal does not support detecting if a connection is still usable after an exception for database kind: other
20:00:00 INFO  [com.tad.mvx.b2c.boo.ApplConfig] (pool-12-thread-1) process GetToken started 
20:00:00 INFO  [com.tad.mvx.b2c.boo.ApplConfig] (pool-12-thread-1) f93dccc1eff5c7fb6df0ef3c812307db9f36fbc9
20:00:00 INFO  [com.tad.mvx.b2c.boo.ApplConfig] (pool-12-thread-1) process GetToken finished 
20:00:01 INFO  [io.quarkus] (Quarkus Main Thread) b2cshopecd 0.0.1 on JVM (powered by Quarkus 2.15.0.Final) started in 38.959s. Listening on: http://0.0.0.0:19097
20:00:01 INFO  [io.quarkus] (Quarkus Main Thread) Profile dev activated. Live Coding activated.
20:00:01 INFO  [io.quarkus] (Quarkus Main Thread) Installed features: [agroal, cdi, hibernate-orm, jdbc-mssql, mailer, narayana-jta, netty-Loom-adaptor, qute, rest-client, resteasy, resteasy-jsonb, servlet, smallrye-context-propagation, smallrye-fault-tolerance, smallrye-health, smallrye-metrics, smallrye-openapi, swagger-ui, vertx]
20:00:05 INFO  [waf.ser.NegotiateSecurityFilter] (executor-thread-0) successfully logged in user: TDM\R6492682
20:00:15 INFO  [com.tad.mvx.b2c.ser.v1.ProductStockServ] (executor-thread-0) List<ProductSpOffers> R6492682 executor-thread-0
